filename,width,height,class,xmin,ymin,xmax,ymax
P_20191229_105622.jpg,1024,576,tag_b,454,60,676,229
P_20191229_105622.jpg,1024,576,tag_b,359,238,558,450
P_20191229_105622.jpg,1024,576,tag_s,279,67,318,153
P_20191229_105614.jpg,1024,576,tag_b,258,125,449,287
P_20191229_105614.jpg,1024,576,tag_b,467,179,592,381
P_20191229_105614.jpg,1024,576,tag_s,501,52,575,81
P_20191229_105608.jpg,1024,576,tag_b,294,356,504,529
P_20191229_105543.jpg,576,1024,tag_b,0,408,557,719
P_20191229_105531.jpg,576,1024,tag_b,0,387,570,718
P_20191229_105531.jpg,576,1024,tag_b,73,258,309,430
P_20191229_105519.jpg,576,1024,tag_b,0,410,569,583
P_20191229_105519.jpg,576,1024,tag_b,169,212,472,380
P_20191229_105507.jpg,1024,576,tag_s,797,180,905,345
P_20191229_105507.jpg,1024,576,tag_b,55,0,563,344
P_20191229_105441.jpg,1024,576,tag_b,223,269,886,576
P_20191229_105441.jpg,1024,576,tag_s,210,136,411,213
P_20191229_105429.jpg,1024,576,tag_b,4,247,595,576
P_20191229_105429.jpg,1024,576,tag_b,352,110,777,328
P_20191229_105424.jpg,1024,576,tag_b,7,308,770,576
P_20191229_105412.jpg,1024,576,tag_b,14,166,280,472
P_20191229_105402.jpg,576,1024,tag_b,130,189,435,369
P_20191229_105402.jpg,576,1024,tag_b,103,0,423,125
P_20191229_105353.jpg,576,1024,tag_s,447,493,492,585
P_20191229_105353.jpg,576,1024,tag_b,229,541,450,783
P_20191229_105353.jpg,576,1024,tag_b,0,267,233,505
P_20191229_105353.jpg,576,1024,tag_b,160,138,397,389
P_20191229_105331.jpg,576,1024,tag_b,0,592,270,870
P_20191229_105331.jpg,576,1024,tag_b,242,369,559,621
P_20191229_105331.jpg,576,1024,tag_s,189,319,301,366
P_20191229_105315.jpg,576,1024,tag_s,215,476,262,546
P_20191229_105315.jpg,576,1024,tag_b,179,684,379,829
P_20191229_105315.jpg,576,1024,tag_b,384,554,573,750
P_20191229_105306.jpg,576,1024,tag_s,249,432,303,490
P_20191229_105306.jpg,576,1024,tag_b,224,497,413,584
P_20191229_105255.jpg,576,1024,tag_b,270,471,424,675
P_20191229_105255.jpg,576,1024,tag_s,21,848,72,925
P_20191229_105243.jpg,1024,576,tag_s,303,41,468,79
P_20191229_105243.jpg,1024,576,tag_s,122,455,447,569
P_20191229_105243.jpg,1024,576,tag_b,68,59,665,461
P_20191229_105227.jpg,1024,576,tag_b,545,308,855,576
P_20191229_105227.jpg,1024,576,tag_s,809,475,867,576
P_20191229_105227.jpg,1024,576,tag_s,496,281,568,397
P_20191229_105227.jpg,1024,576,tag_s,204,388,280,503
P_20191229_105216.jpg,1024,576,tag_s,60,11,212,99
P_20191229_105216.jpg,1024,576,tag_s,179,422,337,541
P_20191229_105216.jpg,1024,576,tag_b,4,189,413,388
P_20191229_105201.jpg,576,1024,tag_b,83,236,214,505
P_20191229_105201.jpg,576,1024,tag_b,275,262,503,509
P_20191229_105201.jpg,576,1024,tag_s,413,29,484,119
P_20191229_105201.jpg,576,1024,tag_s,491,217,576,271
P_20191229_105145.jpg,576,1024,tag_s,67,83,157,220
P_20191229_105145.jpg,576,1024,tag_b,109,176,438,407
P_20191229_105145.jpg,576,1024,tag_s,344,368,431,490
P_20191229_105145.jpg,576,1024,tag_b,11,455,347,810
P_20191229_105136.jpg,1024,576,tag_s,588,292,719,343
P_20191229_105136.jpg,1024,576,tag_b,235,33,505,408
P_20191229_105136.jpg,1024,576,tag_b,569,0,891,299
P_20191229_104927.jpg,576,1024,tag_b,76,579,419,1024
P_20191229_104927.jpg,576,1024,tag_s,184,286,305,381
P_20191229_104927.jpg,576,1024,tag_s,51,92,143,190
P_20191229_104913.jpg,576,1024,tag_b,29,258,235,719
P_20191229_104913.jpg,576,1024,tag_b,0,775,518,990
P_20191229_104846.jpg,576,1024,tag_b,0,101,251,505
P_20191229_104846.jpg,576,1024,tag_s,357,356,471,508
P_20191229_104833.jpg,576,1024,tag_b,222,353,421,710
P_20191229_104833.jpg,576,1024,tag_b,0,312,233,470
P_20191229_104822.jpg,576,1024,tag_s,172,130,240,206
P_20191229_104822.jpg,576,1024,tag_s,216,289,319,363
P_20191229_104822.jpg,576,1024,tag_b,62,478,400,744
P_20191229_104822.jpg,576,1024,tag_b,331,729,576,951
P_20191229_104809.jpg,576,1024,tag_s,140,662,311,719
P_20191229_104809.jpg,576,1024,tag_s,351,350,490,482
P_20191229_104809.jpg,576,1024,tag_b,113,0,442,180
P_20191229_104801.jpg,1024,576,tag_s,497,247,739,365
P_20191229_104753.jpg,1024,576,tag_s,380,374,563,490
P_20191229_104753.jpg,1024,576,tag_s,434,0,616,110
P_20191229_104733.jpg,576,1024,tag_b,124,492,374,925
P_20191229_104733.jpg,576,1024,tag_b,234,55,436,480
P_20191229_104725.jpg,576,1024,tag_b,333,494,569,946
P_20191229_104725.jpg,576,1024,tag_b,0,446,339,620
P_20191229_104715.jpg,576,1024,tag_s,421,562,557,742
P_20191229_104715.jpg,576,1024,tag_b,3,295,313,729
P_20191229_104701.jpg,576,1024,tag_b,89,477,547,937
P_20191229_104701.jpg,576,1024,tag_s,240,237,373,327
P_20191229_104648.jpg,576,1024,tag_b,271,677,446,1024
P_20191229_104648.jpg,576,1024,tag_b,0,484,277,675
P_20191229_104642.jpg,1024,576,tag_b,56,309,409,446
P_20191229_104642.jpg,1024,576,tag_b,394,0,587,312
P_20191229_104634.jpg,1024,576,tag_b,377,366,704,499
P_20191229_104634.jpg,1024,576,tag_b,383,11,710,157
P_20191229_104615.jpg,576,1024,tag_s,35,334,170,406
P_20191229_104615.jpg,576,1024,tag_s,84,399,215,481
P_20191229_104615.jpg,576,1024,tag_b,55,473,434,653
P_20191229_104615.jpg,576,1024,tag_b,419,0,554,209
P_20191229_104557.jpg,1024,576,tag_b,360,16,579,547
P_20191229_104557.jpg,1024,576,tag_s,595,88,702,260
P_20191229_104557.jpg,1024,576,tag_s,700,54,794,217
P_20191229_104540.jpg,1024,576,tag_b,180,163,745,543
P_20191229_104514.jpg,576,1024,tag_b,58,313,516,498
P_20191229_104508.jpg,576,1024,tag_b,160,30,547,540
P_20191229_104508.jpg,576,1024,tag_s,172,701,296,827
P_20191229_104458.jpg,1024,576,tag_b,54,79,466,527
P_20191229_104447.jpg,576,1024,tag_b,269,181,576,338
P_20191229_104447.jpg,576,1024,tag_b,0,332,215,656
P_20191229_104440.jpg,576,1024,tag_b,292,115,488,517
P_20191229_104440.jpg,576,1024,tag_b,30,591,413,946
P_20191229_104435.jpg,576,1024,tag_s,442,212,537,361
P_20191229_104435.jpg,576,1024,tag_s,367,324,512,430
P_20191229_104435.jpg,576,1024,tag_b,0,580,404,855
P_20191229_104427.jpg,576,1024,tag_b,71,634,331,954
P_20191229_104427.jpg,576,1024,tag_b,16,233,230,546
P_20191229_104427.jpg,576,1024,tag_s,390,204,443,317
P_20191229_104419.jpg,1024,576,tag_b,355,324,609,576
P_20191229_104419.jpg,1024,576,tag_b,457,4,632,267
P_20191229_104419.jpg,1024,576,tag_b,10,147,263,439
P_20191229_104414.jpg,576,1024,tag_b,190,72,362,410
P_20191229_104414.jpg,576,1024,tag_b,0,470,299,813
P_20191229_104405.jpg,576,1024,tag_b,295,462,499,815
P_20191229_104405.jpg,576,1024,tag_b,0,149,320,427
P_20191229_104350.jpg,576,1024,tag_b,9,315,569,951
P_20191229_104350.jpg,576,1024,tag_s,218,78,397,125
P_20191229_104350.jpg,576,1024,tag_s,217,1,380,69
P_20191229_104339.jpg,1024,576,tag_b,259,146,836,365
P_20191229_104339.jpg,1024,576,tag_b,0,21,206,153
P_20191229_104324.jpg,576,1024,tag_s,417,215,528,288
P_20191229_104324.jpg,576,1024,tag_b,0,298,372,729
P_20191229_104307.jpg,1024,576,tag_b,47,283,487,533
P_20191229_104307.jpg,1024,576,tag_s,617,147,697,220
P_20191229_104259.jpg,576,1024,tag_b,9,427,477,586
P_20191229_104239.jpg,576,1024,tag_s,34,805,174,993
P_20191229_104239.jpg,576,1024,tag_s,123,916,320,987
P_20191229_104239.jpg,576,1024,tag_b,254,0,520,603
P_20191229_104229.jpg,576,1024,tag_b,78,31,428,542
P_20191229_104229.jpg,576,1024,tag_s,221,745,414,817
P_20191229_104229.jpg,576,1024,tag_s,264,821,425,972
P_20191229_104229.jpg,576,1024,tag_s,0,844,68,930
P_20191229_104224.jpg,576,1024,tag_s,31,731,168,901
P_20191229_104224.jpg,576,1024,tag_b,185,520,576,869
P_20191229_104210.jpg,1024,576,tag_b,367,9,594,244
P_20191229_104210.jpg,1024,576,tag_b,395,310,636,576
P_20191229_104210.jpg,1024,576,tag_s,247,99,344,174
P_20191229_104210.jpg,1024,576,tag_s,129,291,241,354
P_20191229_104210.jpg,1024,576,tag_s,226,294,286,398
P_20191229_104204.jpg,1024,576,tag_b,132,63,413,296
P_20191229_104204.jpg,1024,576,tag_b,488,53,810,295
P_20191229_104204.jpg,1024,576,tag_s,218,338,307,437
P_20191229_104204.jpg,1024,576,tag_s,435,423,553,496
P_20191229_104204.jpg,1024,576,tag_s,429,466,502,572
P_20191229_104151.jpg,1024,576,tag_b,235,31,700,563
P_20191229_104138.jpg,1024,576,tag_s,234,402,325,569
P_20191229_104138.jpg,1024,576,tag_b,356,141,836,444
P_20191203_120934.jpg,1024,576,tag_b,570,0,731,182
P_20191203_120934.jpg,1024,576,tag_s,536,283,596,361
P_20191203_120934.jpg,1024,576,tag_s,441,381,515,463
P_20191203_120927.jpg,1024,576,tag_b,297,9,539,271
P_20191203_120927.jpg,1024,576,tag_s,640,353,754,395
P_20191203_120927.jpg,1024,576,tag_s,727,485,825,576
P_20191203_120921.jpg,1024,576,tag_b,252,0,482,202
P_20191203_120921.jpg,1024,576,tag_s,578,266,685,306
P_20191203_120921.jpg,1024,576,tag_s,663,372,748,467
P_20191203_120843.jpg,576,1024,tag_b,227,525,576,902
P_20191203_120843.jpg,576,1024,tag_s,84,189,224,240
P_20191203_120843.jpg,576,1024,tag_s,317,146,404,241
P_20191203_120832.jpg,576,1024,tag_b,155,683,519,958
P_20191203_120832.jpg,576,1024,tag_b,179,153,428,372
P_20191203_120825.jpg,576,1024,tag_s,174,361,396,572
P_20191203_120817.jpg,1024,576,tag_b,276,84,638,412
P_20191203_120808.jpg,576,1024,tag_b,64,320,282,710
P_20191203_120750.jpg,576,1024,tag_b,30,255,436,864
P_20191203_120727.jpg,576,1024,tag_b,218,413,521,675
P_20191203_120657.jpg,576,1024,tag_b,49,675,269,1024
P_20191203_120657.jpg,576,1024,tag_s,165,350,261,447
P_20191203_120657.jpg,576,1024,tag_s,254,211,322,311
P_20191203_120647.jpg,1024,576,tag_b,304,185,406,509
P_20191203_120640.jpg,576,1024,tag_b,351,364,521,601
P_20191203_120640.jpg,576,1024,tag_b,0,615,238,867
P_20191203_120629.jpg,576,1024,tag_b,57,228,533,878
P_20191203_120618.jpg,576,1024,tag_b,0,443,392,1019
P_20191203_120559.jpg,576,1024,tag_b,0,332,540,747
P_20191203_120550.jpg,576,1024,tag_b,129,54,389,939
P_20191203_120543.jpg,576,1024,tag_b,233,332,426,660
P_20191203_120535.jpg,576,1024,tag_b,196,401,437,794
P_20191203_120527.jpg,576,1024,tag_b,3,167,399,547
P_20191203_120527.jpg,576,1024,tag_s,410,586,558,679
P_20191203_120527.jpg,576,1024,bar-code,44,216,187,368
P_20191203_120527.jpg,576,1024,bar-code,123,288,265,433
P_20191203_120527.jpg,576,1024,bar-code,425,594,541,680
P_20191203_120535.jpg,576,1024,bar-code,268,532,392,671
P_20191203_120535.jpg,576,1024,bar-code,288,621,416,755
P_20191203_120543.jpg,576,1024,bar-code,259,476,393,579
P_20191203_120543.jpg,576,1024,bar-code,278,573,398,652
P_20191203_120550.jpg,576,1024,bar-code,172,643,288,774
P_20191203_120550.jpg,576,1024,bar-code,163,770,279,918
P_20191203_120550.jpg,576,1024,bar-code,218,195,338,330
P_20191203_120550.jpg,576,1024,bar-code,228,78,360,219
P_20191203_120559.jpg,576,1024,bar-code,410,375,523,465
P_20191203_120559.jpg,576,1024,bar-code,345,411,452,506
P_20191203_120559.jpg,576,1024,bar-code,83,560,193,650
P_20191203_120559.jpg,576,1024,bar-code,10,600,107,705
P_20191203_120618.jpg,576,1024,bar-code,105,591,299,739
P_20191203_120618.jpg,576,1024,bar-code,49,732,273,955
P_20191203_120629.jpg,576,1024,bar-code,203,410,427,642
P_20191203_120629.jpg,576,1024,bar-code,111,573,339,806
P_20191203_120640.jpg,576,1024,bar-code,400,434,484,518
P_20191203_120640.jpg,576,1024,bar-code,367,498,455,582
P_20191203_120640.jpg,576,1024,bar-code,55,692,157,785
P_20191203_120640.jpg,576,1024,bar-code,0,735,109,846
P_20191203_120647.jpg,1024,576,bar-code,330,302,405,401
P_20191203_120647.jpg,1024,576,bar-code,315,385,393,491
P_20191203_120657.jpg,576,1024,bar-code,272,226,312,292
P_20191203_120657.jpg,576,1024,bar-code,174,356,247,430
P_20191203_120657.jpg,576,1024,bar-code,101,810,208,930
P_20191203_120657.jpg,576,1024,bar-code,56,914,179,1018
P_20191203_120727.jpg,576,1024,bar-code,252,427,403,544
P_20191203_120727.jpg,576,1024,bar-code,324,496,475,633
P_20191203_120750.jpg,576,1024,bar-code,192,271,360,418
P_20191203_120750.jpg,576,1024,bar-code,150,416,324,583
P_20191203_120808.jpg,576,1024,bar-code,92,331,216,447
P_20191203_120808.jpg,576,1024,bar-code,109,450,227,550
P_20191203_120817.jpg,1024,576,bar-code,490,108,609,239
P_20191203_120817.jpg,1024,576,bar-code,409,176,526,304
P_20191203_120825.jpg,576,1024,bar-code,203,393,328,537
P_20191203_120832.jpg,576,1024,bar-code,249,216,363,285
P_20191203_120832.jpg,576,1024,bar-code,295,251,401,343
P_20191203_120832.jpg,576,1024,bar-code,217,720,353,877
P_20191203_120832.jpg,576,1024,bar-code,347,751,477,933
P_20191203_120843.jpg,576,1024,bar-code,97,200,201,220
P_20191203_120843.jpg,576,1024,bar-code,329,160,379,234
P_20191203_120843.jpg,576,1024,bar-code,321,662,498,798
P_20191203_120843.jpg,576,1024,bar-code,400,765,547,911
P_20191203_120921.jpg,1024,576,bar-code,591,273,678,297
P_20191203_120921.jpg,1024,576,bar-code,670,378,740,464
P_20191203_120921.jpg,1024,576,bar-code,331,49,420,120
P_20191203_120921.jpg,1024,576,bar-code,294,0,383,71
P_20191203_120927.jpg,1024,576,bar-code,342,38,432,112
P_20191203_120927.jpg,1024,576,bar-code,382,94,470,176
P_20191203_120927.jpg,1024,576,bar-code,660,366,739,394
P_20191203_120927.jpg,1024,576,bar-code,743,508,800,576
P_20191203_120934.jpg,1024,576,bar-code,451,392,497,449
P_20191203_120934.jpg,1024,576,bar-code,547,296,583,352
P_20191203_120934.jpg,1024,576,bar-code,616,46,683,110
P_20191203_120934.jpg,1024,576,bar-code,648,8,716,68
P_20191229_104138.jpg,1024,576,bar-code,240,431,300,557
P_20191229_104138.jpg,1024,576,bar-code,527,210,665,357
P_20191229_104138.jpg,1024,576,bar-code,651,247,804,407
P_20191229_104151.jpg,1024,576,bar-code,370,169,565,372
P_20191229_104151.jpg,1024,576,bar-code,458,60,647,244
P_20191229_104204.jpg,1024,576,bar-code,216,122,315,223
P_20191229_104204.jpg,1024,576,bar-code,284,82,385,179
P_20191229_104204.jpg,1024,576,bar-code,228,354,288,433
P_20191229_104204.jpg,1024,576,bar-code,453,428,532,478
P_20191229_104204.jpg,1024,576,bar-code,440,481,497,566
P_20191229_104204.jpg,1024,576,bar-code,599,110,716,216
P_20191229_104204.jpg,1024,576,bar-code,679,75,796,173
P_20191229_104210.jpg,1024,576,bar-code,252,109,328,159
P_20191229_104210.jpg,1024,576,bar-code,441,80,532,161
P_20191229_104210.jpg,1024,576,bar-code,484,135,572,219
P_20191229_104210.jpg,1024,576,bar-code,132,301,228,356
P_20191229_104210.jpg,1024,576,bar-code,240,297,272,381
P_20191229_104210.jpg,1024,576,bar-code,480,410,577,510
P_20191229_104210.jpg,1024,576,bar-code,527,470,608,576
P_20191229_104224.jpg,576,1024,bar-code,43,746,139,869
P_20191229_104224.jpg,576,1024,bar-code,333,596,482,743
P_20191229_104224.jpg,576,1024,bar-code,454,657,576,812
P_20191229_104229.jpg,576,1024,bar-code,251,55,421,200
P_20191229_104229.jpg,576,1024,bar-code,191,156,359,331
P_20191229_104229.jpg,576,1024,bar-code,248,760,376,797
P_20191229_104229.jpg,576,1024,bar-code,280,840,417,953
P_20191229_104229.jpg,576,1024,bar-code,0,879,47,920
P_20191229_104239.jpg,576,1024,bar-code,307,186,471,355
P_20191229_104239.jpg,576,1024,bar-code,301,366,456,530
P_20191229_104239.jpg,576,1024,bar-code,46,831,144,946
P_20191229_104239.jpg,576,1024,bar-code,150,922,285,987
P_20191229_104259.jpg,576,1024,bar-code,166,447,296,534
P_20191229_104259.jpg,576,1024,bar-code,278,449,409,534
P_20191229_104307.jpg,1024,576,bar-code,621,158,680,219
P_20191229_104307.jpg,1024,576,bar-code,293,318,437,403
P_20191229_104307.jpg,1024,576,bar-code,200,346,334,428
P_20191229_104324.jpg,576,1024,bar-code,425,223,506,283
P_20191229_104324.jpg,576,1024,bar-code,62,317,226,416
P_20191229_104324.jpg,576,1024,bar-code,58,390,259,490
P_20191229_104339.jpg,1024,576,bar-code,488,188,647,300
P_20191229_104339.jpg,1024,576,bar-code,621,159,801,294
P_20191229_104339.jpg,1024,576,bar-code,67,21,182,62
P_20191229_104339.jpg,1024,576,bar-code,0,51,83,115
P_20191229_104350.jpg,576,1024,bar-code,239,87,387,125
P_20191229_104350.jpg,576,1024,bar-code,228,0,346,72
P_20191229_104350.jpg,576,1024,bar-code,153,494,404,720
P_20191229_104350.jpg,576,1024,bar-code,15,641,306,854
P_20191229_104405.jpg,576,1024,bar-code,98,219,223,328
P_20191229_104405.jpg,576,1024,bar-code,186,276,302,383
P_20191229_104405.jpg,576,1024,bar-code,322,556,430,659
P_20191229_104405.jpg,576,1024,bar-code,325,661,446,761
P_20191229_104414.jpg,576,1024,bar-code,226,196,333,286
P_20191229_104414.jpg,576,1024,bar-code,232,288,337,381
P_20191229_104414.jpg,576,1024,bar-code,61,543,190,671
P_20191229_104414.jpg,576,1024,bar-code,0,595,106,727
P_20191229_104419.jpg,1024,576,bar-code,501,96,593,175
P_20191229_104419.jpg,1024,576,bar-code,513,166,608,246
P_20191229_104419.jpg,1024,576,bar-code,439,383,529,481
P_20191229_104419.jpg,1024,576,bar-code,391,437,477,540
P_20191229_104419.jpg,1024,576,bar-code,78,261,181,347
P_20191229_104419.jpg,1024,576,bar-code,26,322,129,407
P_20191229_104427.jpg,576,1024,bar-code,100,288,198,382
P_20191229_104427.jpg,576,1024,bar-code,65,358,159,450
P_20191229_104427.jpg,576,1024,bar-code,143,741,257,841
P_20191229_104427.jpg,576,1024,bar-code,177,819,290,923
P_20191229_104427.jpg,576,1024,bar-code,388,212,426,300
P_20191229_104435.jpg,576,1024,bar-code,21,703,158,826
P_20191229_104435.jpg,576,1024,bar-code,130,666,254,791
P_20191229_104435.jpg,576,1024,bar-code,391,351,490,418
P_20191229_104435.jpg,576,1024,bar-code,447,225,523,345
P_20191229_104440.jpg,576,1024,bar-code,333,268,459,377
P_20191229_104440.jpg,576,1024,bar-code,345,378,459,487
P_20191229_104440.jpg,576,1024,bar-code,153,670,302,825
P_20191229_104440.jpg,576,1024,bar-code,84,737,202,881
P_20191229_104447.jpg,576,1024,bar-code,380,212,459,300
P_20191229_104447.jpg,576,1024,bar-code,457,218,541,311
P_20191229_104447.jpg,576,1024,bar-code,0,431,121,566
P_20191229_104447.jpg,576,1024,bar-code,0,524,63,626
P_20191229_104458.jpg,1024,576,bar-code,176,176,352,345
P_20191229_104458.jpg,1024,576,bar-code,99,269,261,444
P_20191229_104508.jpg,576,1024,bar-code,264,196,429,368
P_20191229_104508.jpg,576,1024,bar-code,321,323,481,477
P_20191229_104508.jpg,576,1024,bar-code,202,712,283,797
P_20191229_104514.jpg,576,1024,bar-code,91,358,227,477
P_20191229_104514.jpg,576,1024,bar-code,223,354,350,481
P_20191229_104540.jpg,1024,576,bar-code,401,268,563,441
P_20191229_104540.jpg,1024,576,bar-code,530,321,667,497
P_20191229_104557.jpg,1024,576,bar-code,384,250,547,394
P_20191229_104557.jpg,1024,576,bar-code,392,391,545,532
P_20191229_104557.jpg,1024,576,bar-code,613,122,682,245
P_20191229_104557.jpg,1024,576,bar-code,707,66,788,201
P_20191229_104615.jpg,576,1024,bar-code,50,342,162,398
P_20191229_104615.jpg,576,1024,bar-code,465,17,542,81
P_20191229_104615.jpg,576,1024,bar-code,453,64,536,123
P_20191229_104615.jpg,576,1024,bar-code,211,506,334,609
P_20191229_104615.jpg,576,1024,bar-code,311,498,433,593
P_20191229_104615.jpg,576,1024,bar-code,102,406,216,470
P_20191229_104634.jpg,1024,576,bar-code,435,25,529,116
P_20191229_104634.jpg,1024,576,bar-code,529,22,615,132
P_20191229_104634.jpg,1024,576,bar-code,408,400,477,499
P_20191229_104634.jpg,1024,576,bar-code,486,392,569,481
P_20191229_104642.jpg,1024,576,bar-code,107,331,205,428
P_20191229_104642.jpg,1024,576,bar-code,209,328,307,423
P_20191229_104642.jpg,1024,576,bar-code,425,188,516,293
P_20191229_104642.jpg,1024,576,bar-code,450,100,550,206
P_20191229_104648.jpg,576,1024,bar-code,75,522,176,622
P_20191229_104648.jpg,576,1024,bar-code,161,552,256,651
P_20191229_104648.jpg,576,1024,bar-code,287,769,394,880
P_20191229_104648.jpg,576,1024,bar-code,287,880,394,997
P_20191229_104701.jpg,576,1024,bar-code,246,253,346,313
P_20191229_104701.jpg,576,1024,bar-code,160,514,324,676
P_20191229_104701.jpg,576,1024,bar-code,246,613,423,776
P_20191229_104715.jpg,576,1024,bar-code,440,592,527,724
P_20191229_104715.jpg,576,1024,bar-code,126,313,276,435
P_20191229_104715.jpg,576,1024,bar-code,73,399,232,544
P_20191229_104725.jpg,576,1024,bar-code,22,448,140,540
P_20191229_104725.jpg,576,1024,bar-code,120,462,239,578
P_20191229_104725.jpg,576,1024,bar-code,415,545,546,630
P_20191229_104725.jpg,576,1024,bar-code,392,618,528,743
P_20191229_104733.jpg,576,1024,bar-code,287,184,384,310
P_20191229_104733.jpg,576,1024,bar-code,282,309,385,425
P_20191229_104733.jpg,576,1024,bar-code,180,560,319,668
P_20191229_104733.jpg,576,1024,bar-code,201,660,327,794
P_20191229_104753.jpg,1024,576,bar-code,469,25,598,87
P_20191229_104753.jpg,1024,576,bar-code,410,416,536,483
P_20191229_104801.jpg,1024,576,bar-code,539,272,701,323
P_20191229_104809.jpg,576,1024,bar-code,160,671,281,700
P_20191229_104809.jpg,576,1024,bar-code,373,360,471,449
P_20191229_104809.jpg,576,1024,bar-code,286,34,416,153
P_20191229_104809.jpg,576,1024,bar-code,215,0,340,93
P_20191229_104822.jpg,576,1024,bar-code,171,135,218,201
P_20191229_104822.jpg,576,1024,bar-code,223,299,313,365
P_20191229_104822.jpg,576,1024,bar-code,142,540,259,657
P_20191229_104822.jpg,576,1024,bar-code,226,581,346,700
P_20191229_104822.jpg,576,1024,bar-code,390,745,501,870
P_20191229_104822.jpg,576,1024,bar-code,491,774,576,915
P_20191229_104833.jpg,576,1024,bar-code,0,310,46,387
P_20191229_104833.jpg,576,1024,bar-code,34,329,132,429
P_20191229_104833.jpg,576,1024,bar-code,281,464,385,566
P_20191229_104833.jpg,576,1024,bar-code,300,397,408,469
P_20191229_104846.jpg,576,1024,bar-code,92,124,228,243
P_20191229_104846.jpg,576,1024,bar-code,39,211,187,355
P_20191229_104846.jpg,576,1024,bar-code,378,385,447,492
P_20191229_104913.jpg,576,1024,bar-code,85,307,218,430
P_20191229_104913.jpg,576,1024,bar-code,75,424,205,557
P_20191229_104913.jpg,576,1024,bar-code,232,818,361,968
P_20191229_104913.jpg,576,1024,bar-code,381,811,463,981
P_20191229_104927.jpg,576,1024,bar-code,64,109,121,180
P_20191229_104927.jpg,576,1024,bar-code,195,295,303,383
P_20191229_104927.jpg,576,1024,bar-code,232,632,384,791
P_20191229_104927.jpg,576,1024,bar-code,168,742,321,890
P_20191229_105136.jpg,1024,576,bar-code,295,177,421,292
P_20191229_105136.jpg,1024,576,bar-code,260,269,381,363
P_20191229_105136.jpg,1024,576,bar-code,611,316,705,331
P_20191229_105136.jpg,1024,576,bar-code,645,88,776,216
P_20191229_105136.jpg,1024,576,bar-code,711,154,842,270
P_20191229_105145.jpg,576,1024,bar-code,68,103,129,196
P_20191229_105145.jpg,576,1024,bar-code,212,248,335,369
P_20191229_105145.jpg,576,1024,bar-code,305,225,403,337
P_20191229_105145.jpg,576,1024,bar-code,371,380,424,475
P_20191229_105145.jpg,576,1024,bar-code,132,592,252,713
P_20191229_105145.jpg,576,1024,bar-code,190,673,304,775
P_20191229_105201.jpg,576,1024,bar-code,124,247,196,328
P_20191229_105201.jpg,576,1024,bar-code,113,317,189,396
P_20191229_105201.jpg,576,1024,bar-code,313,288,403,386
P_20191229_105201.jpg,576,1024,bar-code,363,349,453,428
P_20191229_105201.jpg,576,1024,bar-code,417,37,487,117
P_20191229_105201.jpg,576,1024,bar-code,494,225,575,272
P_20191229_105216.jpg,1024,576,bar-code,82,25,179,81
P_20191229_105216.jpg,1024,576,bar-code,135,238,261,363
P_20191229_105216.jpg,1024,576,bar-code,256,264,361,369
P_20191229_105216.jpg,1024,576,bar-code,216,448,321,528
P_20191229_105227.jpg,1024,576,bar-code,214,403,276,492
P_20191229_105227.jpg,1024,576,bar-code,503,298,542,390
P_20191229_105227.jpg,1024,576,bar-code,650,399,765,514
P_20191229_105227.jpg,1024,576,bar-code,731,355,824,467
P_20191229_105227.jpg,1024,576,bar-code,829,488,861,576
P_20191229_105243.jpg,1024,576,bar-code,226,163,448,315
P_20191229_105243.jpg,1024,576,bar-code,385,203,582,401
P_20191229_105243.jpg,1024,576,bar-code,187,494,416,567
P_20191229_105255.jpg,576,1024,bar-code,282,487,356,547
P_20191229_105255.jpg,576,1024,bar-code,307,538,378,600
P_20191229_105255.jpg,576,1024,bar-code,39,851,63,915
P_20191229_105306.jpg,576,1024,bar-code,249,438,291,481
P_20191229_105306.jpg,576,1024,bar-code,246,512,296,563
P_20191229_105306.jpg,576,1024,bar-code,291,512,345,564
P_20191229_105315.jpg,576,1024,bar-code,221,489,248,542
P_20191229_105315.jpg,576,1024,bar-code,437,622,500,693
P_20191229_105315.jpg,576,1024,bar-code,398,660,466,734
P_20191229_105315.jpg,576,1024,bar-code,239,717,295,794
P_20191229_105315.jpg,576,1024,bar-code,291,741,349,807
P_20191229_105331.jpg,576,1024,bar-code,198,323,281,347
P_20191229_105331.jpg,576,1024,bar-code,333,457,430,546
P_20191229_105331.jpg,576,1024,bar-code,282,503,371,588
P_20191229_105331.jpg,576,1024,bar-code,0,616,94,712
P_20191229_105331.jpg,576,1024,bar-code,58,663,152,759
P_20191229_105353.jpg,576,1024,bar-code,239,222,325,316
P_20191229_105353.jpg,576,1024,bar-code,286,277,370,366
P_20191229_105353.jpg,576,1024,bar-code,28,300,110,386
P_20191229_105353.jpg,576,1024,bar-code,79,355,147,432
P_20191229_105353.jpg,576,1024,bar-code,252,570,329,636
P_20191229_105353.jpg,576,1024,bar-code,288,614,367,696
P_20191229_105353.jpg,576,1024,bar-code,467,504,483,571
P_20191229_105402.jpg,576,1024,bar-code,159,269,248,353
P_20191229_105402.jpg,576,1024,bar-code,238,247,329,341
P_20191229_105402.jpg,576,1024,bar-code,196,0,289,79
P_20191229_105402.jpg,576,1024,bar-code,292,0,375,53
P_20191229_105412.jpg,1024,576,bar-code,85,277,206,378
P_20191229_105412.jpg,1024,576,bar-code,122,359,235,466
P_20191229_105424.jpg,1024,576,bar-code,340,376,553,576
P_20191229_105424.jpg,1024,576,bar-code,553,412,737,576
P_20191229_105429.jpg,1024,576,bar-code,507,152,647,252
P_20191229_105429.jpg,1024,576,bar-code,621,195,758,310
P_20191229_105429.jpg,1024,576,bar-code,95,296,302,425
P_20191229_105429.jpg,1024,576,bar-code,229,394,421,521
P_20191229_105441.jpg,1024,576,bar-code,239,144,381,189
P_20191229_105441.jpg,1024,576,bar-code,435,369,669,540
P_20191229_105441.jpg,1024,576,bar-code,293,428,477,576
P_20191229_105507.jpg,1024,576,bar-code,235,97,378,231
P_20191229_105507.jpg,1024,576,bar-code,345,150,494,285
P_20191229_105507.jpg,1024,576,bar-code,828,198,885,312
P_20191229_105519.jpg,576,1024,bar-code,226,228,326,260
P_20191229_105519.jpg,576,1024,bar-code,244,260,378,318
P_20191229_105519.jpg,576,1024,bar-code,273,478,459,540
P_20191229_105519.jpg,576,1024,bar-code,113,465,274,551
P_20191229_105531.jpg,576,1024,bar-code,95,341,212,421
P_20191229_105531.jpg,576,1024,bar-code,144,315,252,357
P_20191229_105531.jpg,576,1024,bar-code,149,491,336,666
P_20191229_105531.jpg,576,1024,bar-code,0,548,134,673
P_20191229_105543.jpg,576,1024,bar-code,183,440,397,573
P_20191229_105543.jpg,576,1024,bar-code,323,414,498,498
P_20191229_105608.jpg,1024,576,bar-code,305,372,372,435
P_20191229_105608.jpg,1024,576,bar-code,353,395,421,466
P_20191229_105614.jpg,1024,576,bar-code,507,58,558,65
P_20191229_105614.jpg,1024,576,bar-code,505,240,561,302
P_20191229_105614.jpg,1024,576,bar-code,480,286,546,351
P_20191229_105614.jpg,1024,576,bar-code,310,178,376,238
P_20191229_105614.jpg,1024,576,bar-code,347,206,417,269
P_20191229_105622.jpg,1024,576,bar-code,286,85,300,142
P_20191229_105622.jpg,1024,576,bar-code,522,110,581,176
P_20191229_105622.jpg,1024,576,bar-code,568,130,640,200
P_20191229_105622.jpg,1024,576,bar-code,467,266,541,344
P_20191229_105622.jpg,1024,576,bar-code,423,308,504,385
